{
  "page": 1,
  "total_results": 23,
  "total_pages":3,
  "results": [
    {
      "id":0,
      "vendor_name":"The Keg2",
      "reward_type":"GIFT CARD",
      "value":100,
      "logo":"05a_add_a_new_cardvendor_logo.png"
    },
    {
      "id":1,
      "vendor_name":"Amazon2",
      "reward_type":"discount coupon",
      "value":180,
      "logo":"05a_add_a_new_cardvendor_logo_1.png"
    },
    {
      "id":2,
      "vendor_name":"Starbucks2",
      "reward_type":"GIFT CARD",
      "value":190.50,
      "logo":"05a_add_a_new_cardvendor_logo_2.png"
    },
    {
      "id":3,
      "vendor_name":"The Keg2",
      "reward_type":"GIFT CARD",
      "value":100,
      "logo":"05a_add_a_new_cardvendor_logo.png"
    },
    {
      "id":4,
      "vendor_name":"Amazon2",
      "reward_type":"discount coupon",
      "value":180,
      "logo":"05a_add_a_new_cardvendor_logo_1.png"
    },
    {
      "id":5,
      "vendor_name":"Starbucks2",
      "reward_type":"GIFT CARD",
      "value":190.50,
      "logo":"05a_add_a_new_cardvendor_logo_2.png"
    },
    {
      "id":6,
      "vendor_name":"The Keg2",
      "reward_type":"GIFT CARD",
      "value":100,
      "logo":"05a_add_a_new_cardvendor_logo.png"
    },
    {
      "id":7,
      "vendor_name":"Amazon2",
      "reward_type":"discount coupon",
      "value":180,
      "logo":"05a_add_a_new_cardvendor_logo_1.png"
    },
    {
      "id":8,
      "vendor_name":"Starbucks2",
      "reward_type":"GIFT CARD",
      "value":190.50,
      "logo":"05a_add_a_new_cardvendor_logo_2.png"
    },
    {
      "id":9,
      "vendor_name":"The Keg2",
      "reward_type":"GIFT CARD",
      "value":100,
      "logo":"05a_add_a_new_cardvendor_logo.png"
    }
  ]
}
